

[
    {
    "_id": 1,
    "lastName": "Palle",
    "firstName": "shiva kumar goud",
    "hoursFlown": 6,
    "isCurrent": true
    },
    
    {
    "_id": 2,
    "lastName": "bomineni",
    "firstName": "Yashwanth",
    "hoursFlown": 3,
    "isCurrent": false
    },
    {
    "_id": 3,
    "lastName": "Nuggu",
    "firstName": "naveen",
    "hoursFlown": 8,
    "isCurrent": true
    },
    
    {
    "_id": 4,
    "lastName": "Kumar",
    "firstName": "Anurag",
    "hoursFlown": 2,
    "isCurrent": false
    }
    
    ]
     